<?xml version="1.0" encoding="UTF-8"?>
<svg width="273px" height="80px" viewBox="0 0 273 80" version="1.1" xmlns="http://www.w3.org/2000/svg" xmlns:xlink="http://www.w3.org/1999/xlink">
    <!-- Generator: Sketch 50.2 (55047) - http://www.bohemiancoding.com/sketch -->
    <title>press-les-echos-enterpreneurs</title>
    <desc>Created with Sketch.</desc>
    <defs/>
    <g id="press-les-echos-enterpreneurs" stroke="none" stroke-width="1" fill="none" fill-rule="evenodd">
        <g id="logo-entrepreneurs" transform="translate(20.000000, 19.000000)" fill="#FFFFFF" fill-rule="nonzero">
            <g id="Group" transform="translate(0.000000, 19.764706)">
                <polygon id="Shape" points="15.2480105 1.18835294 15.2480105 6.28764706 6.75454737 6.28764706 6.75454737 8.09611765 14.5416526 8.09611765 14.5416526 13.0669412 6.75454737 13.0669412 6.75454737 15.0705882 15.2480105 15.0705882 15.2480105 20.2044706 0.760315789 20.2044706 0.760315789 1.18835294"/>
                <polygon id="Shape" points="35.0260316 20.2044706 30.0251158 20.2044706 23.0056842 10.7124706 23.0056842 20.2044706 17.1389895 20.2044706 17.1389895 1.18835294 22.8119263 1.18835294 29.1568842 10.0355294 29.1568842 1.18835294 35.0235789 1.18835294 35.0235789 20.2044706"/>
                <polygon id="Shape" points="36.5000632 1.18835294 53.9358211 1.18835294 53.9358211 6.28764706 48.2628842 6.28764706 48.2628842 20.2044706 42.173 20.2044706 42.173 6.28764706 36.5000632 6.28764706 36.5000632 1.18835294"/>
                <path d="M61.4040842,14.7469412 L61.4040842,20.2044706 L55.4098526,20.2044706 L55.4098526,1.18835294 L64.8009789,1.18835294 C69.0317684,1.18835294 72.0460526,3.738 72.0460526,8.13070588 C72.0460526,10.8112941 70.7952105,12.8124706 68.7448105,13.8772941 L72.7205263,20.2365882 L66.0542737,20.2365882 L62.8168,14.7815294 L61.4065368,14.7815294 L61.4065368,14.7469412 L61.4040842,14.7469412 Z M61.4040842,10.0355294 L63.9670842,10.0355294 C65.5367684,10.0355294 66.1474737,9.25976471 66.1474737,8.13070588 C66.1474737,6.96705882 65.5367684,6.19376471 63.9670842,6.19376471 L61.4040842,6.19376471 L61.4040842,10.0355294 Z" id="Shape"/>
                <polygon id="Shape" points="88.2628526 1.18835294 88.2628526 6.28764706 79.7375053 6.28764706 79.7375053 8.09611765 87.5270632 8.09611765 87.5270632 13.0669412 79.7375053 13.0669412 79.7375053 15.0705882 88.2309684 15.0705882 88.2309684 20.2044706 73.7432737 20.2044706 73.7432737 1.18835294"/>
                <path d="M96.1161789,15.0063529 L96.1161789,20.2044706 L90.1219474,20.2044706 L90.1219474,1.18835294 L99.1598947,1.18835294 C103.422568,1.18835294 106.404968,3.67376471 106.404968,8.09858824 C106.404968,12.5209412 103.425021,15.0063529 99.1598947,15.0063529 L96.1161789,15.0063529 Z M98.3603368,6.16164706 L96.1480632,6.16164706 L96.1480632,10.0034118 L98.3603368,10.0034118 C99.9300211,10.0034118 100.540726,9.25976471 100.540726,8.09858824 C100.540726,6.93494118 99.9300211,6.16164706 98.3603368,6.16164706 Z" id="Shape"/>
                <path d="M114.035105,14.7469412 L114.035105,20.2044706 L108.040874,20.2044706 L108.040874,1.18835294 L117.432,1.18835294 C121.662789,1.18835294 124.674621,3.738 124.674621,8.13070588 C124.674621,10.8112941 123.423779,12.8124706 121.373379,13.8772941 L125.349095,20.2365882 L118.680389,20.2365882 L115.442916,14.7815294 L114.032653,14.7815294 L114.032653,14.7469412 L114.035105,14.7469412 Z M114.035105,10.0355294 L116.598105,10.0355294 C118.170242,10.0355294 118.778495,9.25976471 118.778495,8.13070588 C118.778495,6.96705882 118.170242,6.19376471 116.598105,6.19376471 L114.035105,6.19376471 L114.035105,10.0355294 Z" id="Shape"/>
                <polygon id="Shape" points="140.893874 1.18835294 140.893874 6.28764706 132.400411 6.28764706 132.400411 8.09611765 140.187516 8.09611765 140.187516 13.0669412 132.400411 13.0669412 132.400411 15.0705882 140.893874 15.0705882 140.893874 20.2044706 126.406179 20.2044706 126.406179 1.18835294"/>
                <polygon id="Shape" points="160.637558 20.2044706 155.639095 20.2044706 148.617211 10.6803529 148.617211 20.2044706 142.752968 20.2044706 142.752968 1.18835294 148.423453 1.18835294 154.770863 10.0355294 154.770863 1.18835294 160.637558 1.18835294 160.637558 20.2044706"/>
                <polygon id="Shape" points="177.209989 1.18835294 177.209989 6.28764706 168.716526 6.28764706 168.716526 8.09611765 176.503632 8.09611765 176.503632 13.0669412 168.716526 13.0669412 168.716526 15.0705882 177.209989 15.0705882 177.209989 20.2044706 162.722295 20.2044706 162.722295 1.18835294"/>
                <path d="M178.939095,12.3282353 L178.939095,1.18835294 L184.999547,1.18835294 L184.999547,11.8118824 C184.999547,13.9415294 186.086063,15.1669412 187.721968,15.1669412 C189.357874,15.1669412 190.444389,13.9736471 190.444389,11.8118824 L190.444389,1.18835294 L196.504842,1.18835294 L196.504842,12.3282353 C196.504842,17.5584706 193.105495,20.496 187.721968,20.496 C182.338442,20.5281176 178.939095,17.5905882 178.939095,12.3282353 Z" id="Shape"/>
                <path d="M204.390053,14.7469412 L204.390053,20.2044706 L198.395821,20.2044706 L198.395821,1.18835294 L207.786947,1.18835294 C212.017737,1.18835294 215.029568,3.738 215.029568,8.13070588 C215.029568,10.8112941 213.778726,12.8124706 211.728326,13.8772941 L215.704042,20.2365882 L209.035337,20.2365882 L205.797863,14.7815294 L204.390053,14.7815294 L204.390053,14.7469412 Z M204.390053,10.0355294 L206.953053,10.0355294 C208.525189,10.0355294 209.133442,9.25976471 209.133442,8.13070588 C209.133442,6.96705882 208.525189,6.19376471 206.953053,6.19376471 L204.390053,6.19376471 L204.390053,10.0355294 Z" id="Shape"/>
                <path d="M222.306526,14.3615294 C222.593484,15.2978824 223.427379,15.7821176 224.678221,15.7821176 C225.769642,15.7821176 226.635421,15.3942353 226.635421,14.5542353 C226.635421,13.9069412 226.122821,13.7142353 225.384579,13.5536471 L221.4432,12.7482353 C218.495137,12.1676471 216.346632,10.6803529 216.346632,7.35494118 C216.346632,3.318 219.807295,0.864705882 224.263726,0.864705882 C229.328411,0.864705882 232.085168,3.64164706 232.534,7.03129412 L226.605989,7.03129412 C226.284695,6.15917647 225.578337,5.57858824 224.298063,5.57858824 C223.238526,5.57858824 222.502737,5.964 222.502737,6.67552941 C222.502737,7.25611765 222.985905,7.51552941 223.562274,7.644 L227.569874,8.58035294 C231.030537,9.38823529 232.730211,11.2288235 232.730211,14.1984706 C232.730211,18.2971765 229.137105,20.5577647 224.810663,20.5577647 C219.873516,20.5577647 216.604158,18.2650588 215.932137,14.3911765 L222.311432,14.3911765 L222.311432,14.3615294 L222.306526,14.3615294 Z" id="Shape"/>
            </g>
            <path d="M92.3661053,18.9518824 C89.4818105,18.9518824 88.3903895,17.7585882 88.3903895,16.5628235 C88.3903895,15.6264706 89.3199368,14.7864706 90.5070105,15.0458824 L90.8258526,15.4337647 C90.0900632,16.7555294 90.6345474,17.9191765 92.5255263,17.9191765 C93.7101474,17.9191765 94.5759263,17.2718824 94.5759263,16.2712941 C94.5759263,15.078 93.6144947,14.6258824 92.1085789,14.0131765 C89.9944105,13.1385882 88.7435684,12.1725882 88.7435684,10.2035294 C88.7435684,8.26658824 90.4407895,6.58658824 93.0062421,6.58658824 C95.763,6.58658824 96.9819579,7.90835294 96.9819579,9.03988235 C96.9819579,9.94411765 96.1799474,10.8162353 94.7696842,10.5247059 L94.4827263,10.1392941 C95.3485053,8.97564706 94.8972211,7.61929412 93.0405789,7.61929412 C91.9172737,7.61929412 91.1814842,8.32835294 91.1814842,9.26717647 C91.1814842,10.3641176 92.3661053,10.9125882 93.7126,11.3968235 C95.8292211,12.1404706 97.5264421,13.1064706 97.5264421,15.2707059 C97.5264421,17.4324706 95.9567579,18.9518824 92.3661053,18.9518824 Z M81.5009474,18.9518824 C78.1040526,18.9518824 75.7299053,16.6912941 75.7299053,13.1731765 C75.7299053,9.23258824 78.1678211,6.61870588 82.0135474,6.61870588 C85.4104421,6.61870588 87.7845895,8.87929412 87.7845895,12.3998824 C87.7845895,16.3355294 85.3466737,18.9518824 81.5009474,18.9518824 Z M81.7560211,17.9488235 C83.8726421,17.9488235 84.4171263,15.4955294 84.4171263,12.9755294 C84.4171263,10.2331765 84.0320632,7.64894118 81.7560211,7.64894118 C79.6418526,7.64894118 79.0973684,10.1022353 79.0973684,12.6222353 C79.0973684,15.3349412 79.5462,17.9488235 81.7560211,17.9488235 Z M71.0846211,17.3361176 L71.0846211,10.8458824 C71.0846211,9.48952941 70.5720211,8.87682353 69.6081368,8.87682353 C68.1022211,8.87682353 66.8194947,11.2337647 66.8194947,14.8161176 L66.8194947,18.69 L63.6776737,18.69 L63.6776737,2.99682353 C63.6776737,2.06047059 63.6139053,2.02835294 62.0761053,1.512 L62.0761053,0.541058824 L66.9470316,0.541058824 C66.8194947,1.54164706 66.8194947,9.42035294 66.8194947,9.93917647 L66.8832632,9.93917647 C67.6852737,7.93552941 69.1274211,6.58164706 71.1459368,6.58164706 C72.9412632,6.58164706 74.2239895,7.80705882 74.2239895,10.1985882 L74.2239895,16.1082353 C74.2239895,17.2051765 74.3834105,17.3015294 76.0830842,17.7215294 L76.0830842,18.69 C74.6728211,18.8505882 73.5200842,18.9469412 72.8456105,18.9469412 C71.6928737,18.9518824 71.0846211,18.4355294 71.0846211,17.3361176 Z M62.3336316,15.6585882 L62.8462316,16.2712941 C61.7891474,17.8228235 60.0575895,18.9197647 58.0709579,18.9197647 C54.8334842,18.9197647 52.4936737,16.5628235 52.4936737,12.9137647 C52.4936737,9.36105882 55.0910105,6.552 58.4879053,6.552 C61.1490105,6.552 62.3679684,8.00717647 62.3679684,9.16835294 C62.3679684,10.1392941 61.7572632,11.1052941 60.0281579,10.8162353 L59.7387474,10.3962353 C60.1875789,9.26717647 60.3788842,7.55505882 58.5197895,7.55505882 C56.5969263,7.55505882 55.8268,9.78352941 55.8268,12.4616471 C55.8268,15.1422353 57.0776421,16.9828235 59.2236947,16.9828235 C60.3788842,17.0124706 61.4040842,16.5628235 62.3336316,15.6585882 Z M37.9422105,1.93694118 L51.3090526,1.93694118 L51.4365895,6.35929412 L50.5389263,6.35929412 L50.0900947,4.97082353 C49.6412632,3.58235294 48.6798316,3.16235294 47.2695684,3.16235294 L43.8064526,3.16235294 L43.8064526,9.39317647 L47.2352316,9.39317647 C47.9734737,9.39317647 48.0029053,9.26470588 48.5179579,7.10047059 L49.4793895,7.10047059 L49.4793895,13.1361176 L48.5179579,13.1361176 C48.0053579,11.0385882 47.9734737,10.7470588 47.2352316,10.7470588 L43.8064526,10.7470588 L43.8064526,15.8463529 C43.8064526,16.9432941 44.1277474,17.4621176 45.5061263,17.4621176 L47.1420316,17.4621176 C49.0330105,17.4621176 49.8987895,16.7184706 50.5389263,15.33 L51.1471789,14.0082353 L52.1086105,14.2972941 L51.3728211,18.6875294 L38.0059789,18.6875294 L38.0059789,17.7190588 C40.3457895,17.2027059 40.4733263,17.1384706 40.4733263,16.2021176 L40.4733263,4.35070588 C40.4733263,3.38223529 40.3457895,3.35258824 38.0059789,2.86588235 L38.0059789,1.92952941 L37.9422105,1.92952941 L37.9422105,1.93694118 Z M30.2483053,18.9518824 C27.3640105,18.9518824 26.2725895,17.7585882 26.2725895,16.5628235 C26.2725895,15.6264706 27.2021368,14.7864706 28.3892105,15.0458824 L28.7080526,15.4337647 C27.9722632,16.7555294 28.5167474,17.9191765 30.4077263,17.9191765 C31.5923474,17.9191765 32.4581263,17.2718824 32.4581263,16.2712941 C32.4581263,15.078 31.4966947,14.6258824 29.9907789,14.0131765 C27.8741579,13.1385882 26.6257684,12.1725882 26.6257684,10.2035294 C26.6257684,8.26658824 28.3229895,6.58658824 30.8884421,6.58658824 C33.6452,6.58658824 34.8641579,7.90835294 34.8641579,9.03988235 C34.8641579,9.94411765 34.0621474,10.8162353 32.6518842,10.5247059 L32.3624737,10.1392941 C33.2282526,8.97564706 32.7794211,7.61929412 30.9203263,7.61929412 C29.7970211,7.61929412 29.0293474,8.32835294 29.0293474,9.26717647 C29.0293474,10.3641176 30.2139684,10.9125882 31.5604632,11.3968235 C33.6770842,12.1404706 35.3743053,13.1064706 35.3743053,15.2707059 C35.4110947,17.4324706 33.8708421,18.9518824 30.2483053,18.9518824 Z M21.2741263,7.61929412 C19.4469158,7.61929412 18.6449053,9.58835294 18.5811368,12.1058824 C22.5544,11.4931765 22.7162737,9.97623529 22.7162737,9.06952941 C22.6868421,8.03929412 21.8529474,7.61929412 21.2741263,7.61929412 Z M25.2498421,9.492 C25.2498421,11.0435294 24.3840632,12.8198824 18.5835895,13.1089412 C18.7430105,15.4658824 19.9300842,17.0495294 21.9486,17.0495294 C23.0719053,17.0495294 24.0946526,16.5949412 25.0242,15.7252941 L25.5368,16.338 C24.4772632,17.8895294 22.7481579,18.9864706 20.7615263,18.9864706 C17.5240526,18.9864706 15.1842421,16.6295294 15.1842421,12.978 C15.1842421,9.42529412 18.0366526,6.61870588 21.3697789,6.61870588 C24.1608737,6.61623529 25.2498421,8.29623529 25.2498421,9.492 Z M6.49947368,4.39023529 L6.49947368,15.8834118 C6.49947368,16.9803529 6.81831579,17.4967059 8.19669474,17.4967059 L9.8326,17.4967059 C11.7235789,17.4967059 12.5893579,16.7530588 13.2294947,15.3670588 L13.8402,14.0428235 L14.8016316,14.3343529 L14.0633895,18.7221176 L0.696547368,18.7221176 L0.696547368,17.7536471 C3.03635789,17.2372941 3.16389474,17.1730588 3.16389474,16.2367059 L3.16389474,4.38776471 C3.16389474,3.41682353 3.03635789,3.38717647 0.696547368,2.90047059 L0.696547368,1.932 L9.06247368,1.932 L9.06247368,2.90047059 C6.62701053,3.38964706 6.49947368,3.42176471 6.49947368,4.39023529 Z" id="Shape"/>
        </g>
    </g>
</svg>